{
	"info": {
		"_postman_id": "75227de3-7bb1-45a0-a6bb-afc23a13d039",
		"name": "Open Weather Challenge",
		"schema": "https://schema.getpostman.com/json/collection/v2.1.0/collection.json"
	},
	"item": [
		{
			"name": "Get City Data V1",
			"request": {
				"method": "GET",
				"header": [],
				"url": {
					"raw": "{{host}}/api/v1/weather?api={{api_key}}&units={{units}}&names=London,Moscow,Shanghai,New York City",
					"host": [
						"{{host}}"
					],
					"path": [
						"api",
						"v1",
						"weather"
					],
					"query": [
						{
							"key": "api",
							"value": "{{api_key}}",
							"description": "Required parameter. Learn how to get an API key here https://openweathermap.org/appid"
						},
						{
							"key": "units",
							"value": "{{units}}",
							"description": "Optional parameter will default to \"Imperial\" if not specified\nPossible Values:\nImperial = Fahrenheit\nMetric = Celcius\nStandard = Kelvin"
						},
						{
							"key": "names",
							"value": "London,Moscow,Shanghai,New York City",
							"description": "Required Parameter.  Up to 10 city names can be provided separated by a ','."
						}
					]
				},
				"description": "Gets the city data using the OpenWeatherApi created by me."
			},
			"response": []
		},
		{
			"name": "Get City Data V2",
			"request": {
				"method": "GET",
				"header": [],
				"url": {
					"raw": "{{host}}/api/v2/weather?api={{api_key}}&units={{units}}&names=London,Moscow,Shanghai,New York City",
					"host": [
						"{{host}}"
					],
					"path": [
						"api",
						"v2",
						"weather"
					],
					"query": [
						{
							"key": "api",
							"value": "{{api_key}}",
							"description": "Required parameter. Learn how to get an API key here https://openweathermap.org/appid"
						},
						{
							"key": "units",
							"value": "{{units}}",
							"description": "Optional parameter will default to \"Imperial\" if not specified\nPossible Values:\nImperial = Fahrenheit\nMetric = Celcius\nStandard = Kelvin"
						},
						{
							"key": "names",
							"value": "London,Moscow,Shanghai,New York City",
							"description": "Required Parameter.  Up to 10 city names can be provided separated by a ','."
						}
					]
				},
				"description": "Gets the city temperature data using the OpenWeather API module from https://github.com/coderhs/ruby_open_weather_map"
			},
			"response": []
		},
		{
			"name": "Get Session",
			"request": {
				"method": "GET",
				"header": [],
				"url": {
					"raw": "{{host}}/api/v1/session",
					"host": [
						"{{host}}"
					],
					"path": [
						"api",
						"v1",
						"session"
					]
				},
				"description": "Creates a new session when called.  The session will be used for subsequent requests."
			},
			"response": []
		}
	],
	"event": [
		{
			"listen": "prerequest",
			"script": {
				"type": "text/javascript",
				"exec": [
					""
				]
			}
		},
		{
			"listen": "test",
			"script": {
				"type": "text/javascript",
				"exec": [
					""
				]
			}
		}
	],
	"variable": [
		{
			"key": "api_key",
			"value": "f1527b7cb4e2c940c31342dfcd3d2762"
		},
		{
			"key": "units",
			"value": "imperial"
		},
		{
			"key": "host",
			"value": "https://owm-rails.herokuapp.com"
		}
	]
}